# Blender v2.68 (sub 0) OBJ File: 'FluidTranspot.blend'
# www.blender.org
mtllib FluidTransport.mtl
o PipeLeft
v -0.000060 0.575000 0.574830
v 0.424940 0.575000 0.575170
v 0.000060 0.575000 0.424830
v 0.425060 0.575000 0.425170
v 0.424940 0.425000 0.575170
v 0.425060 0.425000 0.425170
v -0.000060 0.425000 0.574830
v 0.000060 0.425000 0.424830
vt 0.671875 0.000000
vt 0.671875 0.703125
vt 0.421875 0.000000
vt 0.953125 0.703125
vt 0.953125 0.953125
vt 0.703125 0.953125
vt 0.562500 0.000000
vt 0.812500 0.000000
vt 0.562500 0.703125
vt 0.437500 0.000000
usemtl None
s 1
f 1/1 2/2 3/3
f 4/4 2/5 5/6
f 6/3 5/1 7/2
f 8/1 6/2 7/3
f 6/5 4/6 5/4
f 5/7 2/8 7/9
f 2/9 1/7 7/8
f 8/7 3/8 6/9
f 2/10 4/1 3/2
f 7/5 1/6 8/4
f 1/4 3/5 8/6
f 3/9 4/7 6/8
o Front
v 0.875000 0.875000 1.000000
v 0.875000 0.875000 0.900000
v 0.125000 0.875000 1.000000
v 0.125000 0.875000 0.900000
v 0.875000 0.125000 0.900000
v 0.125000 0.125000 0.900000
v 0.875000 0.125000 1.000000
v 0.125000 0.125000 1.000000
vt 0.062500 0.000000
vt 0.125000 0.000000
vt 0.062500 0.484375
vt 0.000000 0.500000
vt 0.500000 0.500000
vt 0.500000 1.000000
vt 0.062500 0.500000
vt 0.140625 0.000000
vt 0.078125 0.500000
vt 0.000000 0.000000
vt 1.000000 1.000000
vt 1.000000 0.500000
usemtl None
s 1
f 9/11 10/12 11/13
f 12/14 10/15 13/16
f 14/17 13/11 15/12
f 16/11 14/18 15/19
f 14/15 12/16 13/14
f 13/11 10/17 15/20
f 10/20 9/11 15/17
f 16/11 11/17 14/20
f 11/20 12/11 14/13
f 15/21 9/16 16/22
f 9/22 11/21 16/16
f 10/17 12/11 11/18
o Bottom
v 0.875000 0.100000 0.875000
v 0.875000 0.100000 0.125000
v 0.125000 0.100000 0.875000
v 0.125000 0.100000 0.125000
v 0.875000 -0.000000 0.125000
v 0.125000 -0.000000 0.125000
v 0.875000 -0.000000 0.875000
v 0.125000 -0.000000 0.875000
vt 0.500000 0.500000
vt 0.500000 1.000000
vt 0.000000 0.500000
vt 0.046875 0.500000
vt 0.046875 0.000000
vt 0.109375 0.000000
vt 1.000000 0.500000
vt 1.000000 1.000000
vt 0.031250 0.500000
vt 0.125000 0.000000
usemtl None
s 1
f 17/23 18/24 19/25
f 20/26 18/27 21/28
f 22/29 21/30 23/24
f 24/30 22/24 23/29
f 22/27 20/28 21/31
f 21/27 18/28 23/26
f 18/26 17/27 23/28
f 24/27 19/28 22/26
f 19/26 20/27 22/32
f 23/27 17/28 24/26
f 17/26 19/27 24/28
f 18/25 20/23 19/24
o PipeBack
v 0.574830 0.575000 0.425560
v 0.575170 0.575000 0.000560
v 0.425170 0.575000 0.000440
v 0.574830 0.425000 0.425560
v 0.575170 0.425000 0.000560
v 0.424830 0.425000 0.425440
v 0.425170 0.425000 0.000440
v 0.424830 0.575000 0.425440
vt 0.562500 0.718750
vt 0.562500 0.015625
vt 0.812500 0.015625
vt 0.953125 0.953125
vt 0.703125 0.953125
vt 0.953125 0.703125
vt 0.578125 0.015625
vt 0.828125 0.015625
usemtl None
s 1
f 25/33 26/34 27/35
f 26/33 25/34 28/35
f 29/33 28/34 30/35
f 31/34 29/35 30/33
f 31/36 27/37 29/38
f 28/36 25/37 30/38
f 25/38 32/36 30/37
f 27/38 26/36 29/37
f 29/34 26/35 28/33
f 30/34 32/35 31/33
f 32/33 27/39 31/40
f 32/34 25/35 27/33
o Right
v 1.000000 0.875000 0.875000
v 1.000000 0.875000 0.125000
v 0.900000 0.875000 0.875000
v 0.900000 0.875000 0.125000
v 1.000000 0.125000 0.125000
v 0.900000 0.125000 0.125000
v 1.000000 0.125000 0.875000
v 0.900000 0.125000 0.875000
vt 0.078125 0.000000
vt 0.078125 0.500000
vt 0.015625 0.000000
vt 1.000000 1.000000
vt 0.500000 1.000000
vt 1.000000 0.500000
vt 0.984375 0.500000
vt 0.500000 0.500000
vt 0.000000 0.500000
vt 0.062500 0.500000
vt 0.000000 0.000000
usemtl None
s 1
f 33/41 34/42 35/43
f 36/43 34/41 37/42
f 38/43 37/41 39/42
f 40/41 38/42 39/43
f 38/41 36/42 37/43
f 37/44 34/45 39/46
f 34/47 33/44 39/45
f 40/48 35/45 38/49
f 35/49 36/48 38/45
f 39/41 33/50 40/51
f 33/43 35/41 40/42
f 34/43 36/41 35/42
o PipeTop
v 0.424940 0.575000 0.574940
v 0.425060 0.575000 0.424940
v 0.575060 0.575000 0.425060
v 0.574940 0.575000 0.575060
v 0.574940 1.000000 0.575060
v 0.575060 1.000000 0.425060
v 0.425060 1.000000 0.424940
v 0.424940 1.000000 0.574940
vt 0.953125 0.703125
vt 0.953125 0.953125
vt 0.703125 0.953125
vt 0.421875 0.000000
vt 0.671875 0.000000
vt 0.671875 0.703125
usemtl None
s 1
f 41/52 42/53 43/54
f 44/53 41/54 43/52
f 45/52 46/53 47/54
f 47/55 46/56 43/57
f 42/56 47/57 43/55
f 45/57 41/55 44/56
f 48/56 41/57 45/55
f 46/55 45/56 44/57
f 43/56 46/57 44/55
f 41/56 48/57 42/55
f 48/55 47/56 42/57
f 48/53 45/54 47/52
o Back
v 0.875000 0.875000 0.100000
v 0.875000 0.875000 0.000000
v 0.125000 0.875000 0.100000
v 0.125000 0.875000 0.000000
v 0.875000 0.125000 0.000000
v 0.125000 0.125000 0.000000
v 0.875000 0.125000 0.100000
v 0.125000 0.125000 0.100000
vt 0.066406 0.000000
vt 0.132812 0.000000
vt 0.066406 0.496094
vt 1.000000 0.500000
vt 1.000000 1.000000
vt 0.500000 0.996094
vt 0.066406 0.500000
vt 0.070312 0.500000
vt 0.998471 1.000000
vt 0.500000 0.998471
vt 1.000000 0.501529
vt 0.000000 0.000000
vt 0.500000 0.500000
vt 0.496094 1.000000
vt 0.000000 0.500000
vt 0.500000 0.503906
vt 0.062500 0.500000
usemtl None
s 1
f 49/58 50/59 51/60
f 52/61 50/62 53/63
f 54/64 53/58 55/59
f 56/58 54/59 55/65
f 54/66 52/67 53/68
f 53/58 50/65 55/69
f 50/69 49/58 55/64
f 56/58 51/65 54/69
f 51/69 52/58 54/60
f 55/70 49/71 56/72
f 49/72 51/73 56/71
f 50/74 52/58 51/59
o PipeFront
v 0.574830 0.575000 1.000060
v 0.575170 0.575000 0.575060
v 0.425170 0.575000 0.574940
v 0.574830 0.425000 1.000060
v 0.575170 0.425000 0.575060
v 0.424830 0.425000 0.999940
v 0.425170 0.425000 0.574940
v 0.424830 0.575000 0.999940
vt 0.562500 0.703125
vt 0.562500 0.000000
vt 0.812500 0.000000
vt 0.953125 0.953125
vt 0.703125 0.953125
vt 0.953125 0.703125
usemtl None
s 1
f 57/75 58/76 59/77
f 58/75 57/76 60/77
f 61/75 60/76 62/77
f 63/76 61/77 62/75
f 63/78 59/79 61/80
f 60/78 57/79 62/80
f 57/80 64/78 62/79
f 59/80 58/78 61/79
f 61/76 58/77 60/75
f 62/76 64/77 63/75
f 64/75 59/76 63/77
f 64/76 57/77 59/75
o PipeRight
v 0.574940 0.575000 0.574830
v 0.999940 0.575000 0.575170
v 0.575060 0.575000 0.424830
v 1.000060 0.575000 0.425170
v 0.999940 0.425000 0.575170
v 1.000060 0.425000 0.425170
v 0.574940 0.425000 0.574830
v 0.575060 0.425000 0.424830
vt 0.671875 0.000000
vt 0.671875 0.703125
vt 0.421875 0.000000
vt 0.953125 0.703125
vt 0.953125 0.953125
vt 0.703125 0.953125
vt 0.562500 0.000000
vt 0.812500 0.000000
vt 0.562500 0.703125
usemtl None
s 1
f 65/81 66/82 67/83
f 68/84 66/85 69/86
f 70/83 69/81 71/82
f 72/81 70/82 71/83
f 70/85 68/86 69/84
f 69/87 66/88 71/89
f 66/89 65/87 71/88
f 72/87 67/88 70/89
f 66/83 68/81 67/82
f 71/85 65/86 72/84
f 65/84 67/85 72/86
f 67/89 68/87 70/88
o PipeStraight
v 0.424940 0.575000 0.574940
v 0.574940 0.575000 0.575060
v 0.425060 0.575000 0.424940
v 0.575060 0.575000 0.425060
v 0.574940 0.425000 0.575060
v 0.575060 0.425000 0.425060
v 0.424940 0.425000 0.574940
v 0.425060 0.425000 0.424940
vt 0.484375 0.500000
vt 0.484375 0.828125
vt 0.156250 0.500000
vt 0.484375 0.843750
vt 0.140625 0.500000
usemtl None
s 1
f 73/90 74/91 75/92
f 76/92 74/90 77/93
f 78/92 77/90 79/91
f 80/90 78/91 79/92
f 78/90 76/93 77/92
f 77/90 74/93 79/92
f 74/92 73/90 79/91
f 80/90 75/93 78/92
f 75/92 76/90 78/93
f 79/90 73/91 80/94
f 73/94 75/90 80/91
f 74/92 76/90 75/91
o PipeBottom
v 0.424940 -0.000000 0.574940
v 0.425060 -0.000000 0.424940
v 0.575060 -0.000000 0.425060
v 0.574940 -0.000000 0.575060
v 0.574940 0.425000 0.575060
v 0.575060 0.425000 0.425060
v 0.425060 0.425000 0.424940
v 0.424940 0.425000 0.574940
vt 0.953125 0.703125
vt 0.953125 0.953125
vt 0.703125 0.953125
vt 0.421875 0.000000
vt 0.671875 0.000000
vt 0.671875 0.703125
usemtl None
s 1
f 81/95 82/96 83/97
f 84/96 81/97 83/95
f 85/95 86/96 87/97
f 87/98 86/99 83/100
f 82/99 87/100 83/98
f 85/100 81/98 84/99
f 88/99 81/100 85/98
f 86/98 85/99 84/100
f 83/99 86/100 84/98
f 81/99 88/100 82/98
f 88/98 87/99 82/100
f 88/96 85/97 87/95
o Left
v 0.100000 0.875000 0.875000
v 0.100000 0.875000 0.125000
v 0.000000 0.875000 0.875000
v 0.000000 0.875000 0.125000
v 0.100000 0.125000 0.125000
v 0.000000 0.125000 0.125000
v 0.100000 0.125000 0.875000
v 0.000000 0.125000 0.875000
vt 0.062500 0.000000
vt 0.062500 0.484375
vt 0.000000 0.000000
vt 0.078125 0.000000
vt 0.078125 0.500000
vt 0.062500 0.500000
vt 0.500000 0.500000
vt 0.500000 1.000000
vt 0.000000 0.500000
vt 1.000000 1.000000
vt 1.000000 0.500000
usemtl None
s 1
f 89/101 90/102 91/103
f 92/103 90/104 93/105
f 94/103 93/101 95/106
f 96/101 94/102 95/103
f 94/101 92/106 93/103
f 93/107 90/108 95/109
f 90/109 89/107 95/108
f 96/110 91/108 94/111
f 91/111 92/110 94/108
f 95/101 89/106 96/103
f 89/103 91/104 96/106
f 90/103 92/101 91/106
o Top
v 0.875000 1.000000 0.875000
v 0.875000 1.000000 0.125000
v 0.125000 1.000000 0.875000
v 0.125000 1.000000 0.125000
v 0.875000 0.900000 0.125000
v 0.125000 0.900000 0.125000
v 0.875000 0.900000 0.875000
v 0.125000 0.900000 0.875000
vt 1.000000 1.000000
vt 0.500000 1.000000
vt 1.000000 0.500000
vt 0.062500 0.500000
vt 0.062500 0.000000
vt 0.125000 0.000000
vt 0.000000 0.500000
vt 0.500000 0.500000
vt 0.140625 0.000000
vt 0.078125 0.500000
vt 0.984375 0.500000
usemtl None
s 1
f 97/112 98/113 99/114
f 100/115 98/116 101/117
f 102/118 101/119 103/113
f 104/119 102/113 103/118
f 102/116 100/120 101/115
f 101/116 98/117 103/115
f 98/115 97/116 103/117
f 104/116 99/117 102/115
f 99/121 100/116 102/120
f 103/116 97/117 104/115
f 97/115 99/116 104/117
f 98/122 100/112 99/113
o Corner
v 0.374900 0.625000 0.624900
v 0.624900 0.625000 0.625100
v 0.375100 0.625000 0.374900
v 0.625100 0.625000 0.375100
v 0.624900 0.375000 0.625100
v 0.625100 0.375000 0.375100
v 0.374900 0.375000 0.624900
v 0.375100 0.375000 0.374900
vt 0.468750 0.500000
vt 0.468750 0.843750
vt 0.125000 0.500000
vt 0.468750 0.828125
vt 0.453125 0.500000
usemtl None
s 1
f 105/123 106/124 107/125
f 108/125 106/123 109/126
f 110/125 109/127 111/124
f 112/123 110/124 111/125
f 110/127 108/126 109/125
f 109/123 106/124 111/125
f 106/125 105/123 111/124
f 112/123 107/126 110/125
f 107/125 108/127 110/126
f 111/123 105/124 112/125
f 105/125 107/123 112/126
f 106/125 108/123 107/124
